{
 "name": "smartenergy",
 "version": "0.1",
 "slug": "smartenergy",
 "description": "Smart Energy Addon",
 "arch": ["armhf","armv7","amd64"],
 "url": "https://gitlab.com/parkyeri/hassio-addons/smartenergy/",
 "startup": "application",
 "webui": "http://[HOST]:[PORT:1923]/",
 "boot": "auto",
 "ports": { 
	 "1923/tcp": 1923
 },
 "options": {},
 "schema": {},
 "homeassistant_api": true,
 "image": "registry.gitlab.com/parkyer/hassio-addons/smartenergy/smartenergy:0.1"
}
